swagger: '2.0'
########################################################################
#                             API Information                          #
########################################################################
info:
  version: '1.0.0'
  title: Portal de Atendimento
  description: |
    ## Documentação da API Portal de Atendimento.

    Toda resposta (sucesso ou falha) irá devolver ** HTTP CODE 200 ** e estará num envelope de resposta.

    Se uma resposta for definida para a URI, essa será mandatória.

    Todo campo do tipo date, será no formato `yyyy-MM-dd` (2016-09-20).

    Todo campo do tipo date-time, será no formato `yyyy-MM-ddTHH:mm:ssZ` (2016-09-20T23:10:15).

    ## Envelope de resposta

    ```json
    {
      "meta": {
        "code": um código
      },
      "data": {
        ...
      },
      "pagination": {
        ...
      }
    }
    ```
    ----

    O atributo **meta** terá o código de resposta da operação.

    Toda resposta de erro será **"meta"."code"** 400 (Bad request)

    ## Estrutura duma resposta com sucesso

    ```json
    {
      "meta": {
        "code": 200 ou 201
      },
      "data": {
        ...
      },
      "pagination": {
        ...
      }
    }
    ```

    ## Resposta para um pedido com verbo GET com múltiplo resultado

    ```json
    {
      "meta": {
        "code": 200
      },
      "data": [
        {
          "id": 1,
          "version": 0,
          "name": 'Nome 1',
          "location": "/path/to/element/1"
        },
        {
          "id": 2,
          "version": 2,
          "name": 'Nome 2',
          "location": "/path/to/element/2"
        },
        {
          "id": 3,
          "version": 2,
          "name": 'Nome 3',
          "location": "/path/to/element/3"
        },
        ...
      ],
      "pagination": {
        "totalCount": 65,
        "totalPage": 7,
        "pageFirst": 1,
        "pagePrevious": 3,
        "page": 4,
        "pageNext": 5,
        "pageLast": 7,
        "perPage": 10,
        "perPageLimit": 100
      }
    }
    ```

    ## Ordenação

    Para ordernar o resultado de uma pesquisa, será possivel informar um campo e a ordenação do resultado.

    order = "nome do campo que sera ordenado"

    sort = "direção da ordenação"

    ## Estrutura de uma paginação

    Para paginação, poderemos informar dois valores que são currentPage e itemsPerPage, ambos são opcionais.

    Valores default:

    currentPage = 1

    itemsPerPage = 25 (limite 100)


    ```json
    {
       "pagination": {
        "totalCount": 65,
        "totalPage": 7,
        "pageFirst": 1,
        "pagePrevious": 3,
        "page": currentPage,
        "pageNext": 5,
        "pageLast": 7,
        "perPage": itemsPerPage,
        "perPageLimit": 100
      }
    }
    ```
    ## Resposta para um pedido com verbo GET com único resultado

    Atributos compostos devem trazer a localização do recurso.

    Atributos do tipo lista deve retornar a localização dos recursos.

    ```json
    {
      "meta": {
        "code": 200
      },
      "data": {
        "id": 1,
        "version": 1,
        "name": "Name value",
        "age": 18,
        "category": {
          "id": 1,
          "label": 'Categoria 1'
        }
      }
    }
    ```

    ## Resposta para um pedido com verbo POST

    ```json
    {
      "meta": {
        "code": 201
      },
      "data": {
        "id": 1,
        "version": 0,
        "name": 'Nome 1',
        "location": "/path/to/element/1"
      }
    }
    ```

    ## Resposta para um pedido com verbo PUT

    ```json
    {
      "meta": {
        "code": 200
      },
      "data": {
        "id": 1,
        "version": 1,
        "name": 'Nome 1',
        "location": "/path/to/element/1"
      }
    }
    ```


    ## Resposta para um pedido com verbo DELETE

    ```json
    {
      "meta": {
        "code": 200
      }
    }
    ```

    ## Estrutura duma resposta com erro

    > Error mode 1

    Retorna um ** meta.code ** 400, uma ** message ** e uma lista de ** errors **.

    ```json
    {
     "meta": {
       "code": 400
     },
     "message": "Uma mensagem de erro",
     "errors": [
       {
         "field": "name",
         "error-code": "Um código de erro, ex.: nullable, not.unique, minSize.notmet, service.invalid.rule",
         "rejected-value": "Valor do campo rejeitado",
         "message": "Uma mensagem de erro"
       }
     ]
    }
    ```
    ----

    > Error mode 2

    Retorna um ** meta.code ** 400 e uma ** message **.


    ```json
    {
     "meta": {
       "code": 400
     },
     "message": "Uma mensagem de erro"
    }
    ```
    ------

    > Error mode 3

    Retorna um ** meta.code ** 400 e uma uma lista de ** errors **.


    ```json
    {
     "meta": {
       "code": 400
     },
     "errors": [
       {
         "field": "name",
         "error-code": "Um código de erro, ex.: nullable, not.unique, minSize.notmet, service.invalid.rule",
         "rejected-value": "Valor do campo rejeitado",
         "message": "Uma mensagem de erro"
       }
     ]
    }
    ```

    ------

    > Error model

    Um ** error ** é composto de:
      - field: campo qual se trata o erro
      - error-code: um código de erro
      - rejected-value: valor rejeitado
      - message: uma mensagem amigável sobre o erro


    ```json
    {
       "field": "name",
       "error-code": "Um código de erro, ex.: nullable, not.unique, minSize.notmet, service.invalid.rule",
       "rejected-value": "Valor do campo rejeitado",
       "message": "Uma mensagem de erro"
     }
    ```


    ------------------

    ## API Spec

host: localhost:8080
basePath: /api
schemes:
  - http
  - https
consumes:
  - application/json
produces:
  - application/json

paths:

  /initialization:
    get:
      description: |
        URI que retorna a configuração inicial do sistema.

        login_field pode ser "username" ou "document_number" de acordo com a url informada.

      summary: ErrorMode 3
      parameters:
        - in: query
          name: url
          description: url do tenant
          required: true
          type: string

      responses:
        '200':
          description: ''
          schema:
            type: object
            properties:
              tenantIdentifier:
                type: string
              loginField:
                type: string

  /login:
    post:
      description: |
        URI para autenticação.

        O login devera ser feito de acordo com o parametro recebido na initialization "login_field"
      parameters:
        - name: body
          in: body
          description: ""
          required: true
          schema:
            type: object
            required:
              - credentials
              - password
            properties:
              credentials:
                type: object
                required:
                  - username
                properties:
                  username:
                    type: string
                  tenantIdentifier:
                    type: string

              password:
                type: string

      responses:
        '200':
          description: ""


  /serviceOrders:
    get:
      description: |
        URI que me retorna uma lista.

        Irá retorna uma lista de acordo com o usuário autenticado.
      summary: ErrorMode 3
      parameters:
        - in: query
          name: code
          type: array
          items:
            type: integer

        - in: query
          name: status
          type: string

        - in: query
          name: openingDateStart
          type: string
          format: date

        - in: query
          name: openingDateEnd
          type: string
          format: date

        - in: query
          name: closingDateStart
          type: string
          format: date

        - in: query
          name: closingDateEnd
          type: string
          format: date

      responses:
        '200':
          description: ''

    post:
      description: URI para criação.
      summary: ErrorMode 1
      parameters:
        - name: body
          in: body
          description: ""
          required: true
          schema:
            type: object
            required:
              - serviceOfferedId
              - modelId
              - defectId
              - serialNumber
            properties:
              serviceOfferedId:
                type: integer
              modelId:
                type: integer
              defectId:
                type: integer
              serialNumber:
                type: string
              notes:
                type: string

      responses:
        '200':
          description: ''

  /serviceOrders/{id}:
    get:
      description: URI para recuperar um item.
      summary: ErrorMode 3
      parameters:
        - in: path
          name: id
          description: id da ordem de serviço
          required: true
          type: integer
          format: int64

      responses:
        '200':
          description: ''
          schema:
            type: object
            properties:
              id:
                type: integer
              version:
                type: integer
              openingDate:
                type: string
                format: date
              closingDate:
                type: string
                format: date
              status:
                type: string
              serialNumber:
                type: string
              limitDate:
                type: string
                format: date
              notes:
                type: string
              contractor:
                $ref: "#/definitions/objectDescription"
              serviceOffered:
                $ref: "#/definitions/objectDescription"
              model:
                $ref: "#/definitions/objectDescription"
              defect:
                $ref: "#/definitions/objectDescription"


  /contractors:
    get:
      description: |
        URI que me retorna uma lista.

        Irá retorna uma lista de acordo com as configurações do Tenant.

      summary: ErrorMode 3
      parameters:
        - in: query
          name: name
          type: string

        - in: query
          name: status
          type: string

      responses:
        '200':
          description: ''

  /contractors/{id}:
    get:
      description: URI para recuperar um item.
      summary: ErrorMode 3
      parameters:
        - in: path
          name: id
          description: id do contratante
          required: true
          type: integer
          format: int64

      responses:
        '200':
          description: ''
          schema:
            type: object
            properties:
              id:
                type: integer
              version:
                type: integer
              name:
                type: string
              status:
                type: string
              statusWkf:
                type: string

    put:
      description: URI para edição de um item.
      summary: ErrorMode 3
      parameters:
        - in: path
          name: id
          description: id do contratante
          required: true
          type: integer
          format: int64

        - in: body
          name: contratante
          schema:
            type: object
            properties:
              name:
                type: string
              status:
                type: string

      responses:
        '200':
          description: ''


  /serviceOffereds:
    get:
      description: |
        URI que me retorna uma lista.

      summary: ErrorMode 3
      parameters:
        - in: query
          name: name
          type: string

        - in: query
          name: status
          type: string

      responses:
        '200':
          description: ''

  /serviceOffereds/{id}:
    get:
      description: |
        URI para recuperar um item.

        Irá retorna uma lista de acordo com as configurações do Tenant.
      summary: ErrorMode 3
      parameters:
        - in: path
          name: id
          description: id do serviço oferecido
          required: true
          type: integer
          format: int64

      responses:
        '200':
          description: ''
          schema:
            type: object
            properties:
              id:
                type: integer
              version:
                type: integer
              name:
                type: string
              status:
                type: string
              statusWkf:
                type: string
              contractor:
                $ref: '#/definitions/objectDescription'



    put:
      description: URI para edição de um item.
      summary: ErrorMode 3
      parameters:
        - in: path
          name: id
          description: id do serviço oferecido
          required: true
          type: integer
          format: int64

        - in: body
          name: serviceOffered
          schema:
            type: object
            properties:
              id:
                type: integer
                format: int64
              version:
                type: integer
                format: int64
              contractorId:
                type: integer
                format: int64
              name:
                type: string
              status:
                type: string

      responses:
        '200':
          description: ''


  /models:
    get:
      description: |
        URI que me retorna uma lista.

        Irá retorna uma lista de acordo com as configurações do Tenant.
      summary: ErrorMode 3
      parameters:
        - in: query
          name: name
          type: string

        - in: query
          name: status
          type: string

      responses:
        '200':
          description: ''

  /models/{id}:
    get:
      description: URI para recuperar um item.
      summary: ErrorMode 3
      parameters:
        - in: path
          name: id
          description: id do modelo
          required: true
          type: integer
          format: int64

      responses:
        '200':
          description: ''
          schema:
            type: object
            properties:
              id:
                type: integer
              version:
                type: integer
              name:
                type: string
              status:
                type: string
              statusWkf:
                type: string
              contractor:
                $ref: '#/definitions/objectDescription'

    put:
      description: URI para edição de um item.
      summary: ErrorMode 3
      parameters:
        - in: path
          name: id
          description: id do modelo
          required: true
          type: integer
          format: int64

        - in: body
          name: model
          schema:
            type: object
            properties:
              id:
                type: integer
                format: int64
              version:
                type: integer
                format: int64
              contractorId:
                type: integer
                format: int64
              name:
                type: string
              status:
                type: string

      responses:
        '200':
          description: ''


  /defects:
    get:
      description: |
        URI que me retorna uma lista.

        Irá retorna uma lista de acordo com as configurações do Tenant.
      summary: ErrorMode 3
      parameters:
        - in: query
          name: name
          type: string

        - in: query
          name: status
          type: string

      responses:
        '200':
          description: ''

  /defects/{id}:
    get:
      description: URI para recuperar um item.
      summary: ErrorMode 3
      parameters:
        - in: path
          name: id
          description: id do defeito
          required: true
          type: integer
          format: int64

      responses:
        '200':
          description: ''
          schema:
            type: object
            properties:
              id:
                type: integer
              version:
                type: integer
              name:
                type: string
              status:
                type: string
              statusWkf:
                type: string
              contractor:
                $ref: '#/definitions/objectDescription'

    put:
      description: URI para edição de um item.
      summary: ErrorMode 3
      parameters:
        - in: path
          name: id
          description: id do defeito
          required: true
          type: integer
          format: int64

        - in: body
          name: defect
          schema:
            type: object
            properties:
              id:
                type: integer
                format: int64
              version:
                type: integer
                format: int64
              contractorId:
                type: integer
                format: int64
              name:
                type: string
              status:
                type: string

      responses:
        '200':
          description: ''


  /tenants:
    get:
      description: |
        URI que me retorna uma lista.

      summary: ErrorMode 3
      parameters:
        - in: query
          name: name
          type: string

        - in: query
          name: status
          type: string

      responses:
        '200':
          description: ''

    post:
      description: URI para criação.
      summary: ErrorMode 1
      parameters:
        - name: tenant
          in: body
          description: ""
          required: true
          schema:
            type: object
            required:
              - name
              - status
              - loginField
              - urlSupportPortal
              - urlWorkfinit
            properties:
              name:
                type: string
              status:
                type: string
              loginField:
                type: string
              urlSupportPortal:
                type: string
              urlWorkfinit:
                type: string

      responses:
        '200':
          description: ''

  /tenants/{id}:
    get:
      description: URI para recuperar um item.
      summary: ErrorMode 3
      parameters:
        - in: path
          name: id
          description: id do tenant
          required: true
          type: integer
          format: int64

      responses:
        '200':
          description: ''
          schema:
            type: object
            properties:
              id:
                type: integer
              version:
                type: integer
              name:
                type: string
              status:
                type: string
              loginField:
                type: string
              urlSupportPortal:
                type: string
              urlWorkfinit:
                type: string

    put:
      description: URI para edição de um item.
      summary: ErrorMode 3
      parameters:
        - in: path
          name: id
          description: id do tenant
          required: true
          type: integer
          format: int64

        - name: tenant
          in: body
          description: ""
          required: true
          schema:
            type: object
            required:
              - name
              - status
              - loginField
              - urlSupportPortal
              - urlWorkfinit
            properties:
              name:
                type: string
              status:
                type: string
              loginField:
                type: string
              urlSupportPortal:
                type: string
              urlWorkfinit:
                type: string

      responses:
        '200':
          description: ''

  /autoComplete/models:
    get:
      description: |
        URI que me retorna uma lista.

      summary: ErrorMode 3
      parameters:
        - in: query
          name: name
          type: string

        - in: query
          name: status
          type: string

        - in: query
          name: itemsPerPage
          type: integer
          format: int64

        - in: query
          name: currentPage
          type: integer
          format: int64

      responses:
        '200':
          description: ''
          schema:
            type: array
            items:
              $ref: "#/definitions/objectDescription"

  /autoComplete/defects:
    get:
      description: |
        URI que me retorna uma lista.

      summary: ErrorMode 3
      parameters:
        - in: query
          name: name
          type: string

        - in: query
          name: status
          type: string

        - in: query
          name: itemsPerPage
          type: integer
          format: int64

        - in: query
          name: currentPage
          type: integer
          format: int64

      responses:
        '200':
          description: ''
          schema:
            type: array
            items:
              $ref: "#/definitions/objectDescription"

  /autoComplete/serviceOffered:
    get:
      description: |
        URI que me retorna uma lista.

      summary: ErrorMode 3
      parameters:
        - in: query
          name: name
          type: string

        - in: query
          name: status
          type: string

        - in: query
          name: itemsPerPage
          type: integer
          format: int64

        - in: query
          name: currentPage
          type: integer
          format: int64

      responses:
        '200':
          description: ''
          schema:
            type: array
            items:
              $ref: "#/definitions/objectDescription"

  /autoComplete/tenants:
    get:
      description: |
        URI que me retorna uma lista.

      summary: ErrorMode 3
      parameters:
        - in: query
          name: name
          type: string

        - in: query
          name: status
          type: string

        - in: query
          name: itemsPerPage
          type: integer
          format: int64

        - in: query
          name: currentPage
          type: integer
          format: int64

      responses:
        '200':
          description: ''
          schema:
            type: array
            items:
              $ref: "#/definitions/objectDescription"

  /autoComplete/contractors:
    get:
      description: |
        URI que me retorna uma lista.

      summary: ErrorMode 3
      parameters:
        - in: query
          name: name
          type: string

        - in: query
          name: status
          type: string

        - in: query
          name: itemsPerPage
          type: integer
          format: int64

        - in: query
          name: currentPage
          type: integer
          format: int64

      responses:
        '200':
          description: ''
          schema:
            type: array
            items:
              $ref: "#/definitions/objectDescription"

  /autoComplete/cities:
    get:
      description: |
        URI que me retorna uma lista.

      summary: ErrorMode 3
      parameters:
        - in: query
          name: itemsPerPage
          type: integer
          format: int64

        - in: query
          name: currentPage
          type: integer
          format: int64

      responses:
        '200':
          description: ''
          schema:
            type: array
            items:
              $ref: "#/definitions/objectDescription"

  /users:
      get:
        description: |
          URI que me retorna uma lista.

        summary: ErrorMode 3
        parameters:
          - in: query
            name: name
            type: string

          - in: query
            name: username
            type: string

          - in: query
            name: status
            type: string

          - in: query
            name: tenantId
            type: integer
            format: int64

        responses:
          '200':
            description: ''

      post:
        description: URI para criação.
        summary: ErrorMode 1
        parameters:
          - name: user
            in: body
            description: ""
            required: true
            schema:
              type: object
              required:
                - name
                - username
                - password
                - status
                - email
              properties:
                name:
                  type: string
                username:
                  type: string
                password:
                  type: string
                status:
                  type: string
                email:
                  type: string
                tenantId:
                  type: integer

        responses:
          '200':
            description: ''

  /users/{id}:
      get:
        description: URI para recuperar um item.
        summary: ErrorMode 3
        parameters:
          - in: path
            name: id
            description: id do usuario
            required: true
            type: integer
            format: int64

        responses:
          '200':
            description: ''
            schema:
              type: object
              properties:
                id:
                  type: integer
                version:
                  type: integer
                name:
                  type: string
                username:
                  type: string
                status:
                  type: string
                email:
                  type: string
                tenant:
                  $ref: '#/definitions/objectDescription'
                lastLogin:
                  type: string
                  format: date
                createdDate:
                  type: string
                  format: date

      put:
        description: |
            URI para edição de um item.

            Os seguintes campos são obrigatorios.

            name, username, status, email
        summary: ErrorMode 3
        parameters:
          - in: path
            name: id
            description: id do usuario
            required: true
            type: integer
            format: int64

          - name: user
            in: body
            description: ""
            required: true
            schema:
              $ref: '#/definitions/user'

        responses:
          '200':
            description: ''


  /customers:
      get:
        description: |
          URI que me retorna uma lista.

        summary: ErrorMode 3
        parameters:
          - in: query
            name: name
            type: string

          - in: query
            name: status
            type: string

          - in: query
            name: documentNumber
            type: string

        responses:
          '200':
            description: ''

      post:
        description: |
            URI para criação.

            Os seguintes campos são obrigatorios.

            name, username, status, email, documentType, documentNumber, contractorId
        summary: ErrorMode 1
        parameters:
          - name: customer
            in: body
            description: ""
            required: true
            schema:
              $ref: '#/definitions/customer'

        responses:
          '200':
            description: ''

  /customers/{id}:
      get:
        description: |
            URI para recuperar um item.
        summary: ErrorMode 3
        parameters:
          - in: path
            name: id
            description: id do cliente
            required: true
            type: integer
            format: int64

        responses:
          '200':
            description: ''
            schema:
              $ref: '#/definitions/customer'

      put:
        description: |
            URI para edição de um item.

            Os seguintes campos são obrigatorios.

            name, username, status, email, documentType, documentNumber, contractorId
        summary: ErrorMode 3
        parameters:
          - in: path
            name: id
            description: id do customer
            required: true
            type: integer
            format: int64

          - name: customer
            in: body
            description: ""
            required: true
            schema:
              $ref: '#/definitions/customer'

        responses:
          '200':
            description: ''

definitions:
  objectDescription:
    type: object
    description: |
        Não sera considerado no verbo POST/PUT
    properties:
      id:
        type: integer
        format: int64
      label:
        type: string

  address:
    type: object
    properties:
      phone:
        type: string
      mobile:
        type: string
      zipCode:
        type: string
      address:
        type: string
      number:
        type: string
      addressDetails:
        type: string
      district:
        type: string
      cityId:
        type: integer
      city:
        $ref: '#/definitions/objectDescription'
      state:
        $ref: '#/definitions/objectDescription'

  user:
    type: object
    properties:
      name:
        type: string
      username:
        type: string
      password:
        type: string
      status:
        type: string
      email:
        type: string
      tenantId:
        type: integer


  customer:
    type: object
    properties:
      user:
        $ref: '#/definitions/user'
      documentType:
        type: string
      documentNumber:
        type: string
      contractorId:
        type: integer
      contractor:
        $ref: '#/definitions/objectDescription'
      address:
        $ref: '#/definitions/address'